…
## ie-general-referrals-by-hospital/general-referrals-by-hospital-department-2015.csv
## ie-general-referrals-by-hospital/general-referrals-by-hospital-department-2016.csv
## ie-general-referrals-by-hospital/general-referrals-by-hospital-department-2017.csv
## ie-general-referrals-by-hospital/general-referrals-by-hospital-department-2018.csv

Import all the Files

Start with one file

Each of the CSV files can be individual read in using readr::read_csv().
Let’s read one file as an example:

readr::read_csv(csv_files[1])

## # A tibble: 837 × 6
##    Month_Year Hospital_Name           Hospital_ID Hospital_Departm… ReferralType
##    <chr>      <chr>                         <dbl> <chr>             <chr>       
##  1 Aug-15     AMNCH                          1049 Paediatric ENT    General Ref…
##  2 Aug-15     AMNCH                          1049 Paediatric Gastr… General Ref…
##  3 Aug-15     AMNCH                          1049 Paediatric Gener… General Ref…
##  4 Aug-15     Bantry General Hospital         704 Gastroenterology  General Ref…
##  5 Aug-15     Bantry General Hospital         704 General Medicine  General Ref…
##  6 Aug-15     Bantry General Hospital         704 General Surgery   General Ref…
##  7 Aug-15     Bantry General Hospital         704 Medicine for the… General Ref…
##  8 Aug-15     Bantry General Hospital         704 Outreach Dermato… General Ref…
##  9 Aug-15     Bantry General Hospital         704 Outreach Orthopa… General Ref…
## 10 Aug-15     Bantry General Hospital         704 Outreach Surgical General Ref…
## # … with 827 more rows, and 1 more variable: TotalReferrals <dbl>
…
To read all of the files in the directory, we map read_csv() onto the list of files, using purrr::map().
But knowing that each list element will be a tibble (or data.frame) and that each data frame has the same columns, we can use purrr’s typed functions to return a single data frame containing each of the imported CSV files using purrr::map_dfr().
The additional _dfr() tells purrr to return a data frame (df) by row-binding each element together (r).
(It’s the same as calling map() %>% bind_rows().)

csv_files %>% 
  map_dfr(read_csv)

## # A tibble: 17,405 × 6
##    Month_Year Hospital_Name           Hospital_ID Hospital_Departm… ReferralType
##    <chr>      <chr>                         <dbl> <chr>             <chr>       
##  1 Aug-15     AMNCH                          1049 Paediatric ENT    General Ref…
##  2 Aug-15     AMNCH                          1049 Paediatric Gastr… General Ref…
##  3 Aug-15     AMNCH                          1049 Paediatric Gener… General Ref…
##  4 Aug-15     Bantry General Hospital         704 Gastroenterology  General Ref…
##  5 Aug-15     Bantry General Hospital         704 General Medicine  General Ref…
##  6 Aug-15     Bantry General Hospital         704 General Surgery   General Ref…
##  7 Aug-15     Bantry General Hospital         704 Medicine for the… General Ref…
##  8 Aug-15     Bantry General Hospital         704 Outreach Dermato… General Ref…
##  9 Aug-15     Bantry General Hospital         704 Outreach Orthopa… General Ref…
## 10 Aug-15     Bantry General Hospital         704 Outreach Surgical General Ref…
## # … with 17,395 more rows, and 1 more variable: TotalReferrals <dbl>

Modify settings for all files

Notice that the Month_Year column was imported as a character instead of a date-time.
We can modify the arguments of read_csv() inside the call to map_dfr(), which sets the arguments for each CSV import.

csv_files %>% 
  map_dfr(read_csv, col_types = cols("Month_Year" = col_date(format = "%b-%y")))

## # A tibble: 17,405 × 6
##    Month_Year Hospital_Name           Hospital_ID Hospital_Departm… ReferralType
##    <date>     <chr>                         <dbl> <chr>             <chr>       
##  1 2015-08-01 AMNCH                          1049 Paediatric ENT    General Ref…
##  2 2015-08-01 AMNCH                          1049 Paediatric Gastr… General Ref…
##  3 2015-08-01 AMNCH                          1049 Paediatric Gener… General Ref…
##  4 2015-08-01 Bantry General Hospital         704 Gastroenterology  General Ref…
##  5 2015-08-01 Bantry General Hospital         704 General Medicine  General Ref…
##  6 2015-08-01 Bantry General Hospital         704 General Surgery   General Ref…
##  7 2015-08-01 Bantry General Hospital         704 Medicine for the… General Ref…
##  8 2015-08-01 Bantry General Hospital         704 Outreach Dermato… General Ref…
##  9 2015-08-01 Bantry General Hospital         704 Outreach Orthopa… General Ref…
## 10 2015-08-01 Bantry General Hospital         704 Outreach Surgical General Ref…
## # … with 17,395 more rows, and 1 more variable: TotalReferrals <dbl>
…
Fix date parsing after importing

Setting read_csv options for all of the files almost works.
Unfortunately, the format of the Month_Year column changed in 2016 from Jan-15 to Jan-2016, so the Month_Year column is NA for the years 2016 and 2017.

To fix this, the easiest solution is to import as a character and use lubridate to parse the date-times, as readr’s col_date() format only allows for one format.

library(lubridate)
csv_files %>% 
  map_dfr(read_csv) %>%
  mutate(Month_Year = myd(Month_Year, truncated = 1))

## # A tibble: 17,405 × 6
##    Month_Year Hospital_Name           Hospital_ID Hospital_Departm… ReferralType
##    <date>     <chr>                         <dbl> <chr>             <chr>       
##  1 2015-08-01 AMNCH                          1049 Paediatric ENT    General Ref…
##  2 2015-08-01 AMNCH                          1049 Paediatric Gastr… General Ref…
##  3 2015-08-01 AMNCH                          1049 Paediatric Gener… General Ref…
##  4 2015-08-01 Bantry General Hospital         704 Gastroenterology  General Ref…
##  5 2015-08-01 Bantry General Hospital         704 General Medicine  General Ref…
##  6 2015-08-01 Bantry General Hospital         704 General Surgery   General Ref…
##  7 2015-08-01 Bantry General Hospital         704 Medicine for the… General Ref…
##  8 2015-08-01 Bantry General Hospital         704 Outreach Dermato… General Ref…
##  9 2015-08-01 Bantry General Hospital         704 Outreach Orthopa… General Ref…
## 10 2015-08-01 Bantry General Hospital         704 Outreach Surgical General Ref…
## # … with 17,395 more rows, and 1 more variable: TotalReferrals <dbl>

Add a source indicator

Finally, we may sometimes wish to include an indicator variable that tracks the source of each row, for example to keep track of the file from which the data was collected.
To do this, we set the .id parameter of map_dfr() to the name of the indicator variable, and the source file name will be included in the final data set.

csv_files %>% 
  map_dfr(read_csv, .id = "source") %>%
  mutate(Month_Year = myd(Month_Year, truncated = 1))

## # A tibble: 17,405 × 7
##    source     Month_Year Hospital_Name Hospital_ID Hospital_Depart… ReferralType
##    <chr>      <date>     <chr>               <dbl> <chr>            <chr>       
##  1 ie-genera… 2015-08-01 AMNCH                1049 Paediatric ENT   General Ref…
##  2 ie-genera… 2015-08-01 AMNCH                1049 Paediatric Gast… General Ref…
##  3 ie-genera… 2015-08-01 AMNCH                1049 Paediatric Gene… General Ref…
##  4 ie-genera… 2015-08-01 Bantry Gener…         704 Gastroenterology General Ref…
##  5 ie-genera… 2015-08-01 Bantry Gener…         704 General Medicine General Ref…
##  6 ie-genera… 2015-08-01 Bantry Gener…         704 General Surgery  General Ref…
##  7 ie-genera… 2015-08-01 Bantry Gener…         704 Medicine for th… General Ref…
##  8 ie-genera… 2015-08-01 Bantry Gener…         704 Outreach Dermat… General Ref…
##  9 ie-genera… 2015-08-01 Bantry Gener…         704 Outreach Orthop… General Ref…
## 10 ie-genera… 2015-08-01 Bantry Gener…         704 Outreach Surgic… General Ref…
## # … with 17,395 more rows, and 1 more variable: TotalReferrals <dbl>
…
