…
student = tribble(
  ~学号, ~姓名, ~生日, ~性别,
  '01', '赵雷', '1990-01-01', '男', 
  '02', '钱电', '1990-12-21', '男',
  '03', '孙风', '1990-05-20', '男',
  '04', '李云', '1990-08-06', '男',
  '05', '周梅', '1991-12-01', '女',
  '06', '吴兰', '1992-03-01', '女',
  '07', '郑竹', '1989-07-01', '女',
  '08', '王菊', '1990-01-20', '女'
)
student

## # A tibble: 8 × 4
##   学号  姓名  生日       性别 
##   <chr> <chr> <chr>      <chr>
## 1 01    赵雷  1990-01-01 男   
## 2 02    钱电  1990-12-21 男   
## 3 03    孙风  1990-05-20 男   
## 4 04    李云  1990-08-06 男   
## 5 05    周梅  1991-12-01 女   
## 6 06    吴兰  1992-03-01 女   
## # … with 2 more rows
…
  '03', '02', 80,
  '03', '03', 80,
  '04', '01', 50,
  '04', '02', 30,
  '04', '03', 20,
  '05', '01', 76,
  '05', '02', 87,
  '06', '01', 31,
  '06', '03', 34,
  '07', '02', 89,
  '07', '03', 98
)
score

## # A tibble: 18 × 3
##   学号  课程编号  成绩
##   <chr> <chr>    <dbl>
## 1 01    01          80
## 2 01    02          90
## 3 01    03          99
## 4 02    01          70
## 5 02    02          60
## 6 02    03          80
## # … with 12 more rows
…
save(course, score, student, teacher, 
     file = "SQL50datas.rda")
load("SQL50datas.rda")         # 载入数据

1. 查询”01”课程比”02”课程成绩高的学生的信息及课程分数

先长变宽重塑为宽表，然后根据条件筛选行，再连接学生信息

# 为了方便理解,先看一看这个宽表
score1 = score %>% 
  pivot_wider(names_from = 课程编号, values_from = 成绩,
              names_prefix = "课程") 
score1

## # A tibble: 7 × 4
##   学号  课程01 课程02 课程03
##   <chr>  <dbl>  <dbl>  <dbl>
## 1 01        80     90     99
## 2 02        70     60     80
## 3 03        80     80     80
## 4 04        50     30     20
## 5 05        76     87     NA
## 6 06        31     NA     34
## # … with 1 more row
…
5. 查询所有学生的学号、姓名、选课总数、所有课程的总成绩

同上面一样，改用另一种方式： mutate() 修改列的方式，将缺失成绩插补为 0 分

再做分组汇总，函数 n_distinct() 是对唯一值计数，因为没有成绩学生的课程是缺失，计算时需忽略缺失值

student %>% 
  left_join(score, by = "学号") %>%
  mutate(成绩 = replace_na(成绩, 0)) %>% 
  group_by(学号, 姓名) %>%
  summarise(选课总数 = n_distinct(课程编号, na.rm = TRUE), 
            总成绩 = sum(成绩))

## # A tibble: 8 × 4
## # Groups:   学号 [8]
##   学号  姓名  选课总数 总成绩
##   <chr> <chr>    <int>  <dbl>
## 1 01    赵雷         3    269
## 2 02    钱电         3    210
## 3 03    孙风         3    240
## 4 04    李云         3    100
## 5 05    周梅         2    163
## 6 06    吴兰         2     65
## # … with 2 more rows
…
12. 查询至少有一门课与学生”01”所学课程相同的学生信息

成绩表筛选学生”01”的行，其中的课程编号就是该生所学课程

用来与成绩表做半连接，筛选成绩表中这些课程的行，得到学过这些课程的学生学号

再与学生表做半连接，筛选出想要的学生信息

score %>% 
  filter(学号 == "01") %>%
  semi_join(score, ., by = "课程编号") %>% 
  semi_join(student, ., by = "学号")

## # A tibble: 7 × 4
##   学号  姓名  生日       性别 
##   <chr> <chr> <chr>      <chr>
## 1 01    赵雷  1990-01-01 男   
## 2 02    钱电  1990-12-21 男   
## 3 03    孙风  1990-05-20 男   
## 4 04    李云  1990-08-06 男   
## 5 05    周梅  1991-12-01 女   
## 6 06    吴兰  1992-03-01 女   
## # … with 1 more row

13. 查询与学生”01”学习的课程完全相同的学生信息

先从成绩表筛选学生”01”的行，准备好该生的所有课程编号

用 group_nest() 对成绩表按学号做分组嵌套，这样的好处是，每个学生的数据占一行，其所有课程及成绩信息打包成一个对象(数据框)。为了方便理解，打断管道操作先看一下它：

c01 = score %>% 
  filter(学号 == "01")

score_nest = score %>% 
  group_nest(学号) 
score_nest

## # A tibble: 7 × 2
##   学号                data
##   <chr> <list<tibble[,2]>>
## 1 01               [3 × 2]
## 2 02               [3 × 2]
## 3 03               [3 × 2]
## 4 04               [3 × 2]
## 5 05               [2 × 2]
## 6 06               [2 × 2]
## # … with 1 more row
…
17. 按平均成绩从高到低显示所有学生的所有课程的成绩以及平均成绩

对成绩表按学号做分组汇总，计算平均成绩，再对平均成绩按降序排序

# 长表
score %>% 
  group_by(学号) %>% 
  mutate(平均成绩 = mean(成绩)) %>% 
  arrange(-平均成绩)

## # A tibble: 18 × 4
## # Groups:   学号 [7]
##   学号  课程编号  成绩 平均成绩
##   <chr> <chr>    <dbl>    <dbl>
## 1 07    02          89     93.5
## 2 07    03          98     93.5
## 3 01    01          80     89.7
## 4 01    02          90     89.7
## 5 01    03          99     89.7
## 6 05    01          76     81.5
## # … with 12 more rows

上面是按长表实现，若要按成绩宽表实现，同 15. 做法逐行迭代计算平均成绩再排序

score1 %>%
  mutate(平均成绩 = pmap_dbl(.[-1], ~ mean(c(...), na.rm = TRUE))) %>% 
  arrange(-平均成绩)

## # A tibble: 7 × 5
##   学号  课程01 课程02 课程03 平均成绩
##   <chr>  <dbl>  <dbl>  <dbl>    <dbl>
## 1 07        NA     89     98     93.5
## 2 01        80     90     99     89.7
## 3 05        76     87     NA     81.5
## 4 03        80     80     80     80  
## 5 02        70     60     80     70  
## 6 04        50     30     20     33.3
## # … with 1 more row
…
成绩表先根据课程编号分组，计算排名是用 rank()

排名时涉及到对相同分数怎么排名的问题，多个相同值在一起叫做”结”，怎么处理”结”通常有六种方法

对成绩排名，一般是这样排：第 1 名，两个第 2 名，第 4 名 …… 这叫做用 “min” 方法处理 “结”

有两种实现，更简单的实现是直接用 min_rank()，来自”小小不聪明”的做法

score %>% 
  group_by(课程编号) %>% 
  mutate(排名 = min_rank(-成绩)) %>%   # 来自"小小不聪明"
  arrange(课程编号, 排名)

## # A tibble: 18 × 4
## # Groups:   课程编号 [3]
##   学号  课程编号  成绩  排名
##   <chr> <chr>    <dbl> <int>
## 1 01    01          80     1
## 2 03    01          80     1
## 3 05    01          76     3
## 4 02    01          70     4
## 5 04    01          50     5
## 6 06    01          31     6
## # … with 12 more rows

20. 查询学生的总成绩，并进行排名

类似上题(略)

score %>% 
  group_by(学号) %>% 
  summarise(总成绩 = sum(成绩)) %>% 
  mutate(排名 = min_rank(-总成绩)) %>% 
  arrange(排名)

## # A tibble: 7 × 3
##   学号  总成绩  排名
##   <chr>  <dbl> <int>
## 1 01       269     1
## 2 03       240     2
## 3 02       210     3
## 4 07       187     4
## 5 05       163     5
## 6 04       100     6
## # … with 1 more row
…
修改列：人数除以各科人数之和，计算百分比，注意当前分组变量是课程编号，sum(n) 就是对同一课程下的人数加和

左连接：需要课程信息，将课程表连接进来

选择列：删除不想显示的列

score %>% 
  group_by(课程编号) %>% 
  mutate(分数段 = cut(成绩, breaks = c(0,60,70,85,100), right = FALSE)) %>% 
  count(课程编号, 分数段) %>%
  mutate(百分比 = scales::percent(n / sum(n), accuracy = 0.01)) %>% 
  left_join(course, by = "课程编号") %>% 
  select(-教师编号)

## # A tibble: 9 × 5
## # Groups:   课程编号 [3]
##   课程编号 分数段       n 百分比 课程名称
##   <chr>    <fct>    <int> <chr>  <chr>   
## 1 01       [0,60)       2 33.33% 语文    
## 2 01       [70,85)      4 66.67% 语文    
## 3 02       [0,60)       1 16.67% 数学    
## 4 02       [60,70)      1 16.67% 数学    
## 5 02       [70,85)      1 16.67% 数学    
## 6 02       [85,100)     3 50.00% 数学    
## # … with 3 more rows

24. 查询学生的平均成绩及名次

分组汇总：按学号分组汇总每个学生的平均成绩

按平均成绩计算排名并排序，同前文

score %>% 
  group_by(学号) %>% 
  summarise(平均成绩 = mean(成绩)) %>% 
  mutate(排名 = min_rank(-平均成绩)) %>% 
  arrange(排名)

## # A tibble: 7 × 3
##   学号  平均成绩  排名
##   <chr>    <dbl> <int>
## 1 07        93.5     1
## 2 01        89.7     2
## 3 05        81.5     3
## 4 03        80       4
## 5 02        70       5
## 6 04        33.3     6
## # … with 1 more row

25. 查询各科成绩前三名的记录

分组筛选行：根据课程分组，做取最大行切片

score %>% 
  group_by(课程编号) %>% 
  slice_max(成绩, n = 3)

## # A tibble: 10 × 3
## # Groups:   课程编号 [3]
##   学号  课程编号  成绩
##   <chr> <chr>    <dbl>
## 1 01    01          80
## 2 03    01          80
## 3 05    01          76
## 4 01    02          90
## 5 07    02          89
## 6 05    02          87
## # … with 4 more rows
…
.[3:5]是从数据框中选择列范围

... 代表每行的三科成绩，需要用c()打包到一起

忽略NA, 用sum求和

score %>% 
  left_join(course, by = "课程编号") %>% 
  select(-c(课程编号, 教师编号)) %>% 
  pivot_wider(names_from = 课程名称, values_from = 成绩) %>%
  right_join(student, by = "学号") %>% 
  select(学号, 姓名, 语文, 数学, 英语) %>% 
  mutate(总分 = pmap_dbl(.[3:5], ~ sum(c(...), na.rm = TRUE)))

## # A tibble: 8 × 6
##   学号  姓名   语文  数学  英语  总分
##   <chr> <chr> <dbl> <dbl> <dbl> <dbl>
## 1 01    赵雷     80    90    99   269
## 2 02    钱电     70    60    80   210
## 3 03    孙风     80    80    80   240
## 4 04    李云     50    30    20   100
## 5 05    周梅     76    87    NA   163
## 6 06    吴兰     31    NA    34    65
## # … with 2 more rows
…
44. 检索至少选修两门课程的学生学号

按学号分组计数，就是每个学号的课程数

根据条件筛选行

score %>% 
  count(学号) %>% 
  filter(n >= 2)

## # A tibble: 7 × 2
##   学号      n
##   <chr> <int>
## 1 01        3
## 2 02        3
## 3 03        3
## 4 04        3
## 5 05        2
## 6 06        2
## # … with 1 more row
…
46. 查询各学生的年龄: 按照出生日期来算, 当前月日<出生年月的月日, 则年龄减1

修改列：将生日转化为日期型

年龄就是生日至今天的时间段，整除单位1年，等于有几个1年

student %>% 
  mutate(生日 = ymd(生日),
         年龄 = interval(生日, today()) %/% dyears(1))

## # A tibble: 8 × 5
##   学号  姓名  生日       性别   年龄
##   <chr> <chr> <date>     <chr> <dbl>
## 1 01    赵雷  1990-01-01 男       32
## 2 02    钱电  1990-12-21 男       31
## 3 03    孙风  1990-05-20 男       31
## 4 04    李云  1990-08-06 男       31
## 5 05    周梅  1991-12-01 女       30
## 6 06    吴兰  1992-03-01 女       30
## # … with 2 more rows
…
