…
题目1（创建数据框）：将下面的字典创建为DataFrame

data = {"grammer": ["Python","C","Java","GO",np.nan,"SQL","PHP","Python"], "score": [1,2,np.nan,4,5,6,7,10]}

难度：\(\star\)

代码及运行结果：

df = tibble(
  grammer = c("Python","C","Java","GO", NA,"SQL","PHP","Python"), 
  score = c(1,2,NA,4,5,6,7,10)
  )
df

## # A tibble: 8 × 2
##   grammer score
##   <chr>   <dbl>
## 1 Python      1
## 2 C           2
## 3 Java       NA
## 4 GO          4
## 5 <NA>        5
## 6 SQL         6
## # … with 2 more rows
…
names(df)

## [1] "grammer" "score"

题目4（修改列名）：修改第2列列名为”popularity”

难度：\(\star\star\)

代码及运行结果：

df = df %>%
  rename(popularity = score)
df

## # A tibble: 8 × 2
##   grammer popularity
##   <chr>        <dbl>
## 1 Python           1
## 2 C                2
## 3 Java            NA
## 4 GO               4
## 5 <NA>             5
## 6 SQL              6
## # … with 2 more rows

题目5（统计频数）：统计grammer列中每种编程语言出现的次数

难度：\(\star\star\)

代码及运行结果：

# table(df$grammer)
# 或者
df %>%
  count(grammer) 

## # A tibble: 7 × 2
##   grammer     n
##   <chr>   <int>
## 1 C           1
## 2 GO          1
## 3 Java        1
## 4 PHP         1
## 5 Python      2
## 6 SQL         1
## # … with 1 more row

题目6（缺失值处理）：将空值用上下值的平均值填充

难度：\(\star\star\star\)

代码及运行结果：

df = df %>%
  mutate(popularity = zoo::na.approx(popularity))
df

## # A tibble: 8 × 2
##   grammer popularity
##   <chr>        <dbl>
## 1 Python           1
## 2 C                2
## 3 Java             3
## 4 GO               4
## 5 <NA>             5
## 6 SQL              6
## # … with 2 more rows
…
题目8（数据去重）：按grammer列进行去重

难度： \(\star \star\)

代码及运行结果：

df %>%
  distinct(grammer, .keep_all = TRUE)

## # A tibble: 7 × 2
##   grammer popularity
##   <chr>        <dbl>
## 1 Python           1
## 2 C                2
## 3 Java             3
## 4 GO               4
## 5 <NA>             5
## 6 SQL              6
## # … with 1 more row
…
题目14（调整列位置）：交互两列的位置

难度：\(\star\star\)

代码及运行结果：

df %>%
  select(popularity, grammer)

## # A tibble: 8 × 2
##   popularity grammer
##        <dbl> <chr>  
## 1          1 Python 
## 2          2 C      
## 3          3 Java   
## 4          4 GO     
## 5          5 <NA>   
## 6          6 SQL    
## # … with 2 more rows
…
注： 此外，dplyr包还提供了slice_head()查看前n行或前某比例的行，slice_sample()随机查看n行或某比例的行。

题目17（修改数据）：删除最后一行数据

难度：\(\star\star\)

代码及运行结果：

df %>%
  slice(-n()) # 1:n() # all data 

## # A tibble: 7 × 2
##   grammer popularity
##   <chr>        <dbl>
## 1 Python           1
## 2 C                2
## 3 Java             3
## 4 GO               4
## 5 <NA>             5
## 6 SQL              6
## # … with 1 more row
…
## # A tibble: 1 × 2
##   grammer popularity
##   <chr>        <dbl>
## 1 Python          10

题目18（修改数据）：添加一行数据：“Perl”, 6

难度：\(\star\star\)

代码及运行结果：

df %>%
  bind_rows(tibble(grammer="Perl", popularity=6)) 

## # A tibble: 9 × 2
##   grammer popularity
##   <chr>        <dbl>
## 1 Python           1
## 2 C                2
## 3 Java             3
## 4 GO               4
## 5 <NA>             5
## 6 SQL              6
## # … with 3 more rows

# 或者
# df %>% 
#   add_row(grammer="Perl", popularity=6)

题目19（数据整理）：对数据按popularity列值从到大到小排序

难度：\(\star\star\)

代码及运行结果：

df %>%
  arrange(-popularity)  

## # A tibble: 8 × 2
##   grammer popularity
##   <chr>        <dbl>
## 1 Python          10
## 2 PHP              7
## 3 SQL              6
## 4 <NA>             5
## 5 GO               4
## 6 Java             3
## # … with 2 more rows
…
注： 默认从小到大排序。

题目20（字符统计）：统计grammer列每个字符串的长度

难度：\(\star\star\)

代码及运行结果：

df %>%
  mutate(strlen = str_length(grammer))

## # A tibble: 8 × 3
##   grammer popularity strlen
##   <chr>        <dbl>  <int>
## 1 Python           1      6
## 2 C                2      1
## 3 Java             3      4
## 4 GO               4      2
## 5 <NA>             5     NA
## 6 SQL              6      3
## # … with 2 more rows

Part II 基础

题目21（读取数据）：读取本地Excel数据

难度：\(\star\)

代码及运行结果：

df = readxl::read_xlsx("datas/21-50数据.xlsx")
df

## # A tibble: 135 × 3
##   createTime          education salary 
##   <dttm>              <chr>     <chr>  
## 1 2020-03-16 11:30:18 本科      20k-35k
## 2 2020-03-16 10:58:48 本科      20k-40k
## 3 2020-03-16 10:46:39 不限      20k-35k
## 4 2020-03-16 10:45:44 本科      13k-20k
## 5 2020-03-16 10:20:41 本科      10k-20k
## 6 2020-03-16 10:33:48 本科      10k-18k
## # … with 129 more rows
…
题目23（数据计算）：将salary列数据转换为最大值与最小值的平均值

难度：\(\star\star\star\star\)

代码及运行结果：

df = df %>%
  separate(salary, into = c("low", "high"), sep = "-") %>%  # sep="-"也可以省略
  mutate(salary = (parse_number(low) + parse_number(high)) * 1000 / 2) %>%
  select(-c(low, high))
df

## # A tibble: 135 × 3
##   createTime          education salary
##   <dttm>              <chr>      <dbl>
## 1 2020-03-16 11:30:18 本科       27500
## 2 2020-03-16 10:58:48 本科       30000
## 3 2020-03-16 10:46:39 不限       27500
## 4 2020-03-16 10:45:44 本科       16500
## 5 2020-03-16 10:20:41 本科       15000
## 6 2020-03-16 10:33:48 本科       14000
## # … with 129 more rows
…
题目25（时间转换）：将createTime列转换为”月-日”

难度：\(\star\star\star\)

代码及运行结果：

library(lubridate)

df %>% 
  mutate(createTime = str_sub(createTime, 6, 10))  

## # A tibble: 135 × 3
##   createTime education salary
##   <chr>      <chr>      <dbl>
## 1 03-16      本科       27500
## 2 03-16      本科       30000
## 3 03-16      不限       27500
## 4 03-16      本科       16500
## 5 03-16      本科       15000
## 6 03-16      本科       14000
## # … with 129 more rows
…
题目28（修改列）：新增一列将salary离散化为三水平值

难度：\(\star\star\star\star\)

代码及运行结果：

df = df %>%
  mutate(class = case_when(
    salary >= 0 & salary < 5000     ~ "低",
    salary >= 5000 & salary < 20000 ~ "中",
    TRUE                            ~ "高"))  # TRUE效果是其它
df

## # A tibble: 135 × 4
##   createTime          education salary class
##   <dttm>              <chr>      <dbl> <chr>
## 1 2020-03-16 11:30:18 本科       27500 高   
## 2 2020-03-16 10:58:48 本科       30000 高   
## 3 2020-03-16 10:46:39 不限       27500 高   
## 4 2020-03-16 10:45:44 本科       16500 中   
## 5 2020-03-16 10:20:41 本科       15000 中   
## 6 2020-03-16 10:33:48 本科       14000 中   
## # … with 129 more rows
…
df %>%
  mutate(class = sjmisc::rec(salary,
    rec = "min:5000 = 低; 5000:20000 = 中; 20000:max = 高"))

题目29（数据整理）：按salary列对数据降序排列

难度：\(\star\star\)

代码及运行结果：

df %>% 
  arrange(-salary)  # 或用 desc(salary)

## # A tibble: 135 × 4
##   createTime          education salary class
##   <dttm>              <chr>      <dbl> <chr>
## 1 2020-03-16 11:30:17 本科       45000 高   
## 2 2020-03-16 11:04:00 本科       40000 高   
## 3 2020-03-16 10:36:57 本科       37500 高   
## 4 2020-03-16 11:01:39 本科       37500 高   
## 5 2020-03-16 09:54:47 硕士       37500 高   
## 6 2020-03-16 11:01:22 本科       35000 高   
## # … with 129 more rows
…
题目34（数据删除）：删除最后一列class

难度：\(\star\)

代码及运行结果：

df %>% 
  select(-class)

## # A tibble: 135 × 3
##   createTime          education salary
##   <dttm>              <chr>      <dbl>
## 1 2020-03-16 11:30:18 本科       27500
## 2 2020-03-16 10:58:48 本科       30000
## 3 2020-03-16 10:46:39 不限       27500
## 4 2020-03-16 10:45:44 本科       16500
## 5 2020-03-16 10:20:41 本科       15000
## 6 2020-03-16 10:33:48 本科       14000
## # … with 129 more rows

# 或者
# df %>% 
#  select(-last_col())  # 同last_col(0)

题目35（数据操作）：将df的第1列与第2列合并为新的一列

难度：\(\star\star\)

代码及运行结果：

df %>% 
  unite("newcol", 1:2, sep = " ")

## # A tibble: 135 × 3
##   newcol                   salary class
##   <chr>                     <dbl> <chr>
## 1 2020-03-16 11:30:18 本科  27500 高   
## 2 2020-03-16 10:58:48 本科  30000 高   
## 3 2020-03-16 10:46:39 不限  27500 高   
## 4 2020-03-16 10:45:44 本科  16500 中   
## 5 2020-03-16 10:20:41 本科  15000 中   
## 6 2020-03-16 10:33:48 本科  14000 中   
## # … with 129 more rows

题目36（数据操作）：将education列与第salary列合并为新的一列

难度：\(\star\star\)

代码及运行结果：

df %>% 
  unite("newcol", c(education, salary), sep = " ")

## # A tibble: 135 × 3
##   createTime          newcol     class
##   <dttm>              <chr>      <chr>
## 1 2020-03-16 11:30:18 本科 27500 高   
## 2 2020-03-16 10:58:48 本科 30000 高   
## 3 2020-03-16 10:46:39 不限 27500 高   
## 4 2020-03-16 10:45:44 本科 16500 中   
## 5 2020-03-16 10:20:41 本科 15000 中   
## 6 2020-03-16 10:33:48 本科 14000 中   
## # … with 129 more rows
…
题目39（数据操作）：将第8行添加到末尾

难度：\(\star\star\)

代码及运行结果：

df %>% 
  bind_rows(slice(., 8))

## # A tibble: 136 × 4
##   createTime          education salary class
##   <dttm>              <chr>      <dbl> <chr>
## 1 2020-03-16 11:30:18 本科       27500 高   
## 2 2020-03-16 10:58:48 本科       30000 高   
## 3 2020-03-16 10:46:39 不限       27500 高   
## 4 2020-03-16 10:45:44 本科       16500 中   
## 5 2020-03-16 10:20:41 本科       15000 中   
## 6 2020-03-16 10:33:48 本科       14000 中   
## # … with 130 more rows
…
注： 行索引不允许有重复，所以先做了一步去重。

题目42（数据创建）：生成一个和df长度相同的随机数数据框

难度：\(\star\star\)

代码及运行结果：

df1 = tibble(rnums = sample.int(10, nrow(df), replace = TRUE))
  df1

## # A tibble: 135 × 1
##   rnums
##   <int>
## 1     8
## 2     9
## 3     7
## 4     8
## 5    10
## 6     5
## # … with 129 more rows

题目43（数据连接）：将上面生成的数据框与df按列合并

难度：\(\star\star\)

代码及运行结果：

df = bind_cols(df, df1)
df

## # A tibble: 135 × 5
##   createTime          education salary class rnums
##   <dttm>              <chr>      <dbl> <chr> <int>
## 1 2020-03-16 11:30:18 本科       27500 高        8
## 2 2020-03-16 10:58:48 本科       30000 高        9
## 3 2020-03-16 10:46:39 不限       27500 高        7
## 4 2020-03-16 10:45:44 本科       16500 中        8
## 5 2020-03-16 10:20:41 本科       15000 中       10
## 6 2020-03-16 10:33:48 本科       14000 中        5
## # … with 129 more rows

题目44（修改列）：生成新列new为salary列减去随机数列

难度：\(\star\star\)

代码及运行结果：

df = df %>% 
  mutate(new = salary - rnums)
df

## # A tibble: 135 × 6
##   createTime          education salary class rnums   new
##   <dttm>              <chr>      <dbl> <chr> <int> <dbl>
## 1 2020-03-16 11:30:18 本科       27500 高        8 27492
## 2 2020-03-16 10:58:48 本科       30000 高        9 29991
## 3 2020-03-16 10:46:39 不限       27500 高        7 27493
## 4 2020-03-16 10:45:44 本科       16500 中        8 16492
## 5 2020-03-16 10:20:41 本科       15000 中       10 14990
## 6 2020-03-16 10:33:48 本科       14000 中        5 13995
## # … with 129 more rows
…
## [1] FALSE

注： naniar包提供了更强大的探索缺失值及缺失模式的函数，其中miss_var_summary()和miss_case_summary()可检查各列和各行缺失情况。

题目46（类型转换）：将salary列的类型转换为浮点数

难度：\(\star\star\)

代码及运行结果：

df %>% 
  mutate(rnums = as.double(rnums))

## # A tibble: 135 × 6
##   createTime          education salary class rnums   new
##   <dttm>              <chr>      <dbl> <chr> <dbl> <dbl>
## 1 2020-03-16 11:30:18 本科       27500 高        8 27492
## 2 2020-03-16 10:58:48 本科       30000 高        9 29991
## 3 2020-03-16 10:46:39 不限       27500 高        7 27493
## 4 2020-03-16 10:45:44 本科       16500 中        8 16492
## 5 2020-03-16 10:20:41 本科       15000 中       10 14990
## 6 2020-03-16 10:33:48 本科       14000 中        5 13995
## # … with 129 more rows
…
Part III 提高

题目51（读取数据）：使用绝对路径读取本地Excel数据

难度：\(\star\)

代码及运行结果：

df = readxl::read_xls("datas/51-80数据.xls")
df

## # A tibble: 327 × 18
##   代码      简称    日期                `前收盘价(元)` `开盘价(元)` `最高价(元)`
##   <chr>     <chr>   <dttm>                       <dbl>        <dbl>        <dbl>
## 1 600000.SH 浦发银… 2016-01-04 00:00:00           16.1         16.1         16.1
## 2 600000.SH 浦发银… 2016-01-05 00:00:00           15.7         15.5         16.0
## 3 600000.SH 浦发银… 2016-01-06 00:00:00           15.9         15.8         16.0
## 4 600000.SH 浦发银… 2016-01-07 00:00:00           16.0         15.7         15.8
## 5 600000.SH 浦发银… 2016-01-08 00:00:00           15.5         15.7         15.8
## 6 600000.SH 浦发银… 2016-01-11 00:00:00           15.4         15.2         15.4
## # … with 321 more rows, and 12 more variables: `最低价(元)` <dbl>,
## #   `收盘价(元)` <dbl>, `成交量(股)` <chr>, `成交金额(元)` <chr>,
## #   `涨跌(元)` <dbl>, `涨跌幅(%)` <dbl>, `均价(元)` <chr>, `换手率(%)` <chr>,
## #   `A股流通市值(元)` <dbl>, `总市值(元)` <dbl>, `A股流通股本(股)` <dbl>,
## #   市盈率 <dbl>
…
题目53（查看缺失值）：查看每列数据缺失值情况

难度：\(\star\star\)

代码及运行结果：

library(naniar)
  
df %>% 
  miss_var_summary()

## # A tibble: 18 × 3
##   variable     n_miss pct_miss
##   <chr>         <int>    <dbl>
## 1 代码              0        0
## 2 简称              0        0
## 3 日期              0        0
## 4 前收盘价(元)      0        0
## 5 开盘价(元)        0        0
## 6 最高价(元)        0        0
## # … with 12 more rows
…
split(naIdx[,1], naIdx[,2])

## named list()

题目56（缺失值处理）：删除所有存在缺失值的行

难度：\(\star\star\)

代码及运行结果：

df %>% 
  drop_na()

## # A tibble: 327 × 18
##   代码      简称    日期                `前收盘价(元)` `开盘价(元)` `最高价(元)`
##   <chr>     <chr>   <dttm>                       <dbl>        <dbl>        <dbl>
## 1 600000.SH 浦发银… 2016-01-04 00:00:00           16.1         16.1         16.1
## 2 600000.SH 浦发银… 2016-01-05 00:00:00           15.7         15.5         16.0
## 3 600000.SH 浦发银… 2016-01-06 00:00:00           15.9         15.8         16.0
## 4 600000.SH 浦发银… 2016-01-07 00:00:00           16.0         15.7         15.8
## 5 600000.SH 浦发银… 2016-01-08 00:00:00           15.5         15.7         15.8
## 6 600000.SH 浦发银… 2016-01-11 00:00:00           15.4         15.2         15.4
## # … with 321 more rows, and 12 more variables: `最低价(元)` <dbl>,
## #   `收盘价(元)` <dbl>, `成交量(股)` <chr>, `成交金额(元)` <chr>,
## #   `涨跌(元)` <dbl>, `涨跌幅(%)` <dbl>, `均价(元)` <chr>, `换手率(%)` <chr>,
## #   `A股流通市值(元)` <dbl>, `总市值(元)` <dbl>, `A股流通股本(股)` <dbl>,
## #   市盈率 <dbl>
…
题目61（数据创建）：用df的列名创建数据框

难度：\(\star\star\)

代码及运行结果：

names(df) %>% 
  as_tibble()

## # A tibble: 18 × 1
##   value       
##   <chr>       
## 1 代码        
## 2 简称        
## 3 日期        
## 4 前收盘价(元)
## 5 开盘价(元)  
## 6 最高价(元)  
## # … with 12 more rows

题目62（异常值处理）：输出所有换手率不是数字的行

难度：\(\star\star\)

代码及运行结果：

df %>% 
  mutate(`换手率(%)` = parse_number(`换手率(%)`)) %>% 
  filter(is.na(`换手率(%)`))

## # A tibble: 18 × 18
##   代码      简称    日期                `前收盘价(元)` `开盘价(元)` `最高价(元)`
##   <chr>     <chr>   <dttm>                       <dbl>        <dbl>        <dbl>
## 1 600000.SH 浦发银… 2016-02-16 00:00:00           16.3         16.3         16.3
## 2 600000.SH 浦发银… 2016-02-17 00:00:00           16.3         16.3         16.3
## 3 600000.SH 浦发银… 2016-02-18 00:00:00           16.3         16.3         16.3
## 4 600000.SH 浦发银… 2016-02-19 00:00:00           16.3         16.3         16.3
## 5 600000.SH 浦发银… 2016-02-22 00:00:00           16.3         16.3         16.3
## 6 600000.SH 浦发银… 2016-02-23 00:00:00           16.3         16.3         16.3
## # … with 12 more rows, and 12 more variables: `最低价(元)` <dbl>,
## #   `收盘价(元)` <dbl>, `成交量(股)` <chr>, `成交金额(元)` <chr>,
## #   `涨跌(元)` <dbl>, `涨跌幅(%)` <dbl>, `均价(元)` <chr>, `换手率(%)` <dbl>,
## #   `A股流通市值(元)` <dbl>, `总市值(元)` <dbl>, `A股流通股本(股)` <dbl>,
## #   市盈率 <dbl>

题目63（异常值处理）：输出所有换手率为–的行

难度：\(\star\star\)

代码及运行结果：

df %>% 
  filter(`换手率(%)` == "--")

## # A tibble: 18 × 18
##   代码      简称    日期                `前收盘价(元)` `开盘价(元)` `最高价(元)`
##   <chr>     <chr>   <dttm>                       <dbl>        <dbl>        <dbl>
## 1 600000.SH 浦发银… 2016-02-16 00:00:00           16.3         16.3         16.3
## 2 600000.SH 浦发银… 2016-02-17 00:00:00           16.3         16.3         16.3
## 3 600000.SH 浦发银… 2016-02-18 00:00:00           16.3         16.3         16.3
## 4 600000.SH 浦发银… 2016-02-19 00:00:00           16.3         16.3         16.3
## 5 600000.SH 浦发银… 2016-02-22 00:00:00           16.3         16.3         16.3
## 6 600000.SH 浦发银… 2016-02-23 00:00:00           16.3         16.3         16.3
## # … with 12 more rows, and 12 more variables: `最低价(元)` <dbl>,
## #   `收盘价(元)` <dbl>, `成交量(股)` <chr>, `成交金额(元)` <chr>,
## #   `涨跌(元)` <dbl>, `涨跌幅(%)` <dbl>, `均价(元)` <chr>, `换手率(%)` <chr>,
## #   `A股流通市值(元)` <dbl>, `总市值(元)` <dbl>, `A股流通股本(股)` <dbl>,
## #   市盈率 <dbl>
…
代码及运行结果：

rownames(df) = NULL    # R中无行号就是数字索引

题目65（异常值处理）：删除所有换手率为非数字的行

难度：\(\star\star\)

代码及运行结果：

df %>% 
  mutate(`换手率(%)` = parse_number(`换手率(%)`)) %>% 
  filter(!is.na(`换手率(%)`))

## # A tibble: 309 × 18
##   代码      简称    日期                `前收盘价(元)` `开盘价(元)` `最高价(元)`
##   <chr>     <chr>   <dttm>                       <dbl>        <dbl>        <dbl>
## 1 600000.SH 浦发银… 2016-01-04 00:00:00           16.1         16.1         16.1
## 2 600000.SH 浦发银… 2016-01-05 00:00:00           15.7         15.5         16.0
## 3 600000.SH 浦发银… 2016-01-06 00:00:00           15.9         15.8         16.0
## 4 600000.SH 浦发银… 2016-01-07 00:00:00           16.0         15.7         15.8
## 5 600000.SH 浦发银… 2016-01-08 00:00:00           15.5         15.7         15.8
## 6 600000.SH 浦发银… 2016-01-11 00:00:00           15.4         15.2         15.4
## # … with 303 more rows, and 12 more variables: `最低价(元)` <dbl>,
## #   `收盘价(元)` <dbl>, `成交量(股)` <chr>, `成交金额(元)` <chr>,
## #   `涨跌(元)` <dbl>, `涨跌幅(%)` <dbl>, `均价(元)` <chr>, `换手率(%)` <dbl>,
## #   `A股流通市值(元)` <dbl>, `总市值(元)` <dbl>, `A股流通股本(股)` <dbl>,
## #   市盈率 <dbl>

补充：为了便于后续处理，做数值型转化, 并转化为tsibble对象

library(tsibble)

df = df %>% 
  mutate_at(vars(4:18), as.numeric) %>% 
  mutate(日期 = lubridate::as_date(日期)) %>%
  as_tsibble(index = 日期, key = c(代码, 简称))
df

## # A tsibble: 327 x 18 [1D]
## # Key:       代码, 简称 [1]
##   代码    简称  日期       `前收盘价(元)` `开盘价(元)` `最高价(元)` `最低价(元)`
##   <chr>   <chr> <date>              <dbl>        <dbl>        <dbl>        <dbl>
## 1 600000… 浦发… 2016-01-04           16.1         16.1         16.1         15.5
## 2 600000… 浦发… 2016-01-05           15.7         15.5         16.0         15.4
## 3 600000… 浦发… 2016-01-06           15.9         15.8         16.0         15.6
## 4 600000… 浦发… 2016-01-07           16.0         15.7         15.8         15.4
## 5 600000… 浦发… 2016-01-08           15.5         15.7         15.8         14.9
## 6 600000… 浦发… 2016-01-11           15.4         15.2         15.4         15.0
## # … with 321 more rows, and 11 more variables: `收盘价(元)` <dbl>,
## #   `成交量(股)` <dbl>, `成交金额(元)` <dbl>, `涨跌(元)` <dbl>,
## #   `涨跌幅(%)` <dbl>, `均价(元)` <dbl>, `换手率(%)` <dbl>,
## #   `A股流通市值(元)` <dbl>, `总市值(元)` <dbl>, `A股流通股本(股)` <dbl>,
## #   市盈率 <dbl>
…
题目67（数据计算）：计算前一天与后一天收盘价的差值

难度：\(\star\star\)

代码及运行结果：

df %>% 
  mutate(delta = `收盘价(元)` - lag(`收盘价(元)`)) %>% 
  select(日期, `收盘价(元)`, delta)

## # A tsibble: 327 x 3 [1D]
##   日期       `收盘价(元)`   delta
##   <date>            <dbl>   <dbl>
## 1 2016-01-04         15.7 NA     
## 2 2016-01-05         15.9  0.141 
## 3 2016-01-06         16.0  0.124 
## 4 2016-01-07         15.5 -0.521 
## 5 2016-01-08         15.4 -0.0177
## 6 2016-01-11         15.1 -0.389 
## # … with 321 more rows

题目68（数据计算）：计算前一天与后一天收盘价的变化率

难度：\(\star\star\)

代码及运行结果：

df %>% 
  mutate(change = (`收盘价(元)` - lag(`收盘价(元)`)) / `收盘价(元)`) %>% 
  select(日期, `收盘价(元)`, change)

## # A tsibble: 327 x 3 [1D]
##   日期       `收盘价(元)`   change
##   <date>            <dbl>    <dbl>
## 1 2016-01-04         15.7 NA      
## 2 2016-01-05         15.9  0.00891
## 3 2016-01-06         16.0  0.00774
## 4 2016-01-07         15.5 -0.0337 
## 5 2016-01-08         15.4 -0.00115
## 6 2016-01-11         15.1 -0.0258 
## # … with 321 more rows
…
题目70（数据计算）：对收盘价做步长为5的滑动平均

难度：\(\star\star\star\)

代码及运行结果：

library(slider)

df %>%
  mutate(avg_5 = slide_dbl(`收盘价(元)`, mean, na.rm = TRUE, .before = 2, .after = 2)) %>% 
  select(日期, `收盘价(元)`, avg_5)

## # A tsibble: 327 x 3 [1D]
##   日期       `收盘价(元)` avg_5
##   <date>            <dbl> <dbl>
## 1 2016-01-04         15.7  15.9
## 2 2016-01-05         15.9  15.8
## 3 2016-01-06         16.0  15.7
## 4 2016-01-07         15.5  15.6
## 5 2016-01-08         15.4  15.5
## 6 2016-01-11         15.1  15.3
## # … with 321 more rows
…
